Anàlisi de variables i ordenació de dades
…
## Warning in read.spss("./dades/Sondeig Opinio Catalunya base integrada_ICPS.sav"):
## Undeclared level(s) 25, 28, 31, 33, 42, 44, 45, 47, 49, 50, 59 added in variable:
## V525

## Warning in read.spss("./dades/Sondeig Opinio Catalunya base integrada_ICPS.sav"):
## Undeclared level(s) 30, 51, 55 added in variable: V526

## Warning in read.spss("./dades/Sondeig Opinio Catalunya base integrada_ICPS.sav"):
## Undeclared level(s) 32 added in variable: V527

as_tibble(ICPS)

## # A tibble: 37,972 x 573
##    NUMERO ANY    ID01  ID02  ID03  ID11  ID12  ID13  ID14  ID15  ID21 ID22H ID22D
##     <dbl> <fct> <dbl> <dbl> <dbl> <dbl> <dbl> <dbl> <dbl> <dbl> <dbl> <dbl> <dbl>
##  1      5 1991     NA    NA    NA    NA    NA    NA    NA    NA    NA    NA    NA
##  2     10 1991     NA    NA    NA    NA    NA    NA    NA    NA    NA    NA    NA
##  3     12 1991     NA    NA    NA    NA    NA    NA    NA    NA    NA    NA    NA
##  4     15 1991     NA    NA    NA    NA    NA    NA    NA    NA    NA    NA    NA
##  5     42 1991     NA    NA    NA    NA    NA    NA    NA    NA    NA    NA    NA
##  6    134 1991     NA    NA    NA    NA    NA    NA    NA    NA    NA    NA    NA
##  7    149 1991     NA    NA    NA    NA    NA    NA    NA    NA    NA    NA    NA
##  8    150 1991     NA    NA    NA    NA    NA    NA    NA    NA    NA    NA    NA
##  9    209 1991     NA    NA    NA    NA    NA    NA    NA    NA    NA    NA    NA
## 10    219 1991     NA    NA    NA    NA    NA    NA    NA    NA    NA    NA    NA
## # ... with 37,962 more rows, and 560 more variables: ID31 <dbl>, ID41 <dbl>,
## #   IDI <fct>, V001 <fct>, V002 <fct>, V003 <fct>, V004 <fct>, V005 <fct>,
## #   V006 <fct>, V007 <fct>, V008 <fct>, V009 <fct>, V010 <fct>, V011 <fct>,
## #   V012 <fct>, V013 <fct>, V014 <fct>, V015 <fct>, V016 <fct>, V017 <fct>,
## #   V018 <fct>, V019 <fct>, V020 <fct>, V021 <fct>, V022 <fct>, V023 <fct>,
## #   V024 <fct>, V025 <fct>, V026 <fct>, V027 <fct>, V028 <fct>, V029 <fct>,
## #   V030 <fct>, V031 <fct>, V032 <fct>, V033 <fct>, V034 <fct>, V035 <fct>,
## #   V036 <fct>, V037 <fct>, V038 <fct>, V039 <fct>, V040 <fct>, V041 <fct>,
## #   V042 <fct>, V043 <fct>, V044 <fct>, V045 <fct>, V046 <fct>, V047 <fct>,
…
• Carreguem ara una base de dades del sistema.

#install.packages("gapminder")
library(gapminder)

## Warning: package 'gapminder' was built under R version 4.0.4

Exploració general d’un data.frame

Obrim la base de dades com un tibble():

gapminder

## # A tibble: 1,704 x 6
##    country     continent  year lifeExp      pop gdpPercap
##    <fct>       <fct>     <int>   <dbl>    <int>     <dbl>
##  1 Afghanistan Asia       1952    28.8  8425333      779.
##  2 Afghanistan Asia       1957    30.3  9240934      821.
##  3 Afghanistan Asia       1962    32.0 10267083      853.
##  4 Afghanistan Asia       1967    34.0 11537966      836.
##  5 Afghanistan Asia       1972    36.1 13079460      740.
##  6 Afghanistan Asia       1977    38.4 14880372      786.
##  7 Afghanistan Asia       1982    39.9 12881816      978.
##  8 Afghanistan Asia       1987    40.8 13867957      852.
##  9 Afghanistan Asia       1992    41.7 16317921      649.
## 10 Afghanistan Asia       1997    41.8 22227415      635.
## # ... with 1,694 more rows

as.tibble(gapminder)

## Warning: `as.tibble()` was deprecated in tibble 2.0.0.
## Please use `as_tibble()` instead.
## The signature and semantics have changed, see `?as_tibble`.

## # A tibble: 1,704 x 6
##    country     continent  year lifeExp      pop gdpPercap
##    <fct>       <fct>     <int>   <dbl>    <int>     <dbl>
##  1 Afghanistan Asia       1952    28.8  8425333      779.
##  2 Afghanistan Asia       1957    30.3  9240934      821.
##  3 Afghanistan Asia       1962    32.0 10267083      853.
##  4 Afghanistan Asia       1967    34.0 11537966      836.
##  5 Afghanistan Asia       1972    36.1 13079460      740.
##  6 Afghanistan Asia       1977    38.4 14880372      786.
##  7 Afghanistan Asia       1982    39.9 12881816      978.
##  8 Afghanistan Asia       1987    40.8 13867957      852.
##  9 Afghanistan Asia       1992    41.7 16317921      649.
## 10 Afghanistan Asia       1997    41.8 22227415      635.
## # ... with 1,694 more rows
…
Si volem saber el nom d’una o varies columnes en qüestió:

names(gapminder)[2] ### Ens donarà el nom de la segona columna del data.frame.

## [1] "continent"

names(gapminder)[2:4] ### Ens donarà el nom de les columnes de la 2 a la 4.

## [1] "continent" "year"      "lifeExp"

Si volem extreure tota la informació d’un determinada variable hem d’aplicar els corxetes.

gapminder[,4] #Ens dona tots els valors de la variable 4 (lifeExp)

## # A tibble: 1,704 x 1
##    lifeExp
##      <dbl>
##  1    28.8
##  2    30.3
##  3    32.0
##  4    34.0
##  5    36.1
##  6    38.4
##  7    39.9
##  8    40.8
##  9    41.7
## 10    41.8
## # ... with 1,694 more rows
…
## Warning in read.spss("./dades/Sondeig Opinio Catalunya base integrada_ICPS.sav"):
## Undeclared level(s) 32 added in variable: V527

ICPS <- as.data.frame(ICPS)
class(ICPS)

## [1] "data.frame"

#names(ICPS)
#glimpse(ICPS)
as.tibble(ICPS)

## # A tibble: 37,972 x 573
##    NUMERO ANY    ID01  ID02  ID03  ID11  ID12  ID13  ID14  ID15  ID21 ID22H ID22D
##     <dbl> <fct> <dbl> <dbl> <dbl> <dbl> <dbl> <dbl> <dbl> <dbl> <dbl> <dbl> <dbl>
##  1      5 1991     NA    NA    NA    NA    NA    NA    NA    NA    NA    NA    NA
##  2     10 1991     NA    NA    NA    NA    NA    NA    NA    NA    NA    NA    NA
##  3     12 1991     NA    NA    NA    NA    NA    NA    NA    NA    NA    NA    NA
##  4     15 1991     NA    NA    NA    NA    NA    NA    NA    NA    NA    NA    NA
##  5     42 1991     NA    NA    NA    NA    NA    NA    NA    NA    NA    NA    NA
##  6    134 1991     NA    NA    NA    NA    NA    NA    NA    NA    NA    NA    NA
##  7    149 1991     NA    NA    NA    NA    NA    NA    NA    NA    NA    NA    NA
##  8    150 1991     NA    NA    NA    NA    NA    NA    NA    NA    NA    NA    NA
##  9    209 1991     NA    NA    NA    NA    NA    NA    NA    NA    NA    NA    NA
## 10    219 1991     NA    NA    NA    NA    NA    NA    NA    NA    NA    NA    NA
## # ... with 37,962 more rows, and 560 more variables: ID31 <dbl>, ID41 <dbl>,
## #   IDI <fct>, V001 <fct>, V002 <fct>, V003 <fct>, V004 <fct>, V005 <fct>,
## #   V006 <fct>, V007 <fct>, V008 <fct>, V009 <fct>, V010 <fct>, V011 <fct>,
## #   V012 <fct>, V013 <fct>, V014 <fct>, V015 <fct>, V016 <fct>, V017 <fct>,
## #   V018 <fct>, V019 <fct>, V020 <fct>, V021 <fct>, V022 <fct>, V023 <fct>,
## #   V024 <fct>, V025 <fct>, V026 <fct>, V027 <fct>, V028 <fct>, V029 <fct>,
## #   V030 <fct>, V031 <fct>, V032 <fct>, V033 <fct>, V034 <fct>, V035 <fct>,
## #   V036 <fct>, V037 <fct>, V038 <fct>, V039 <fct>, V040 <fct>, V041 <fct>,
## #   V042 <fct>, V043 <fct>, V044 <fct>, V045 <fct>, V046 <fct>, V047 <fct>,
…
ICPS_nacional <- ICPS %>% select(V182,V187,V188)
#glimpse(ICPS_nacional)

Hem creat una base de dades amb tots els casos i només 3 variables vinculades al tema nacional.

4. Mutar

La funció de mutate() ens permet transformar els valors d’una determinada variable o crear una de nova a partir de les dades ja existents. Si el primer que especifiquem dins de la funció mutate es el nom de la columna que volem transformar, R ens sobreescriurà els valors en aquesta mateixa columna. Si el que fem és indicar el nom de la columna nova que no existeix dins d’aquest marc de dades, R ens mantindrà l’origianl i crearà una de nova.

Primer cas:

gapminder

## # A tibble: 1,704 x 6
##    country     continent  year lifeExp      pop gdpPercap
##    <fct>       <fct>     <int>   <dbl>    <int>     <dbl>
##  1 Afghanistan Asia       1952    28.8  8425333      779.
##  2 Afghanistan Asia       1957    30.3  9240934      821.
##  3 Afghanistan Asia       1962    32.0 10267083      853.
##  4 Afghanistan Asia       1967    34.0 11537966      836.
##  5 Afghanistan Asia       1972    36.1 13079460      740.
##  6 Afghanistan Asia       1977    38.4 14880372      786.
##  7 Afghanistan Asia       1982    39.9 12881816      978.
##  8 Afghanistan Asia       1987    40.8 13867957      852.
##  9 Afghanistan Asia       1992    41.7 16317921      649.
## 10 Afghanistan Asia       1997    41.8 22227415      635.
## # ... with 1,694 more rows
…
